<?xml version="1.0" encoding="UTF-8"?>
<session version="1.0">
<refactoring comment="Rename type &apos;com.android.learnapp.Nivel1a&apos; to &apos;Nivel1aActivity&apos;&#x0D;&#x0A;- Original project: &apos;LearnApp&apos;&#x0D;&#x0A;- Original element: &apos;com.android.learnapp.Nivel1a&apos;&#x0D;&#x0A;- Renamed element: &apos;com.android.learnapp.Nivel1aActivity&apos;&#x0D;&#x0A;- Update references to refactored element&#x0D;&#x0A;- Update textual occurrences in comments and strings" description="Rename type &apos;Nivel1a&apos;" flags="589830" id="org.eclipse.jdt.ui.rename.type" input="/src&lt;com.android.learnapp{Nivel1a.java[Nivel1a" matchStrategy="1" name="Nivel1aActivity" qualified="false" references="true" similarDeclarations="false" stamp="1396391237906" textual="false" version="1.0"/>
</session>