<?xml version="1.0" encoding="UTF-8"?>
<session version="1.0">
<refactoring comment="Rename resource &apos;LearnApp/res/layout/cuenta_layout.xml&apos; to &apos;crear_cuenta_layout.xml&apos;" description="Rename resource &apos;cuenta_layout.xml&apos;" flags="7" id="org.eclipse.ltk.core.refactoring.rename.resource" input="res/layout/cuenta_layout.xml" name="crear_cuenta_layout.xml" stamp="1393785685991" updateReferences="true"/>
</session>